# Blender MTL File: 'None'
# Material Count: 3

newmtl material_1_011
Ns 100
Ka 1.000000 0.000000 0.000000
Kd 1.00000 0.000000 0.000000
Ks 1.000000 0.000000 0.000000
Ni 1.000000
d 1.000000
illum 1

newmtl material_2_008
Ns 100
Ka 0.000000 1.000000 0.000000
Kd 0.000000 1.00000 0.000000
Ks 0.000000 1.000000 0.000000
Ni 1.000000
d 1.000000
illum 1

newmtl material_3_003
Ns 100
Ka 0.000000 0.000000 1.000000
Kd 0.000000 0.000000 1.00000
Ks 0.000000 0.000000 1.000000
Ni 1.000000
d 1.000000
illum 2
